%!PS-Adobe-2.0
%%Title: Bomstrip
%%Author: Berteun Damman
% Run with something like: gs -q -sDEVICE=nullpage bomstrip.ps
% Public Domain, 2005

% Definitions
/inc { % Stack: Number
	1 add
} def

% No graphics output
nulldevice

(%stdin) (r) file
/input exch def
(%stdout) (w) file
/output exch def

0 % Number of bytes read 
3 {
	input read {
		exch 
		inc
	} {
		exit
	} ifelse
} repeat
dup
% Did we read less than three bytes?
2 le {
	dup 1 ge {
		% Swap if needed
		dup inc -1 roll exch
		{ output exch write } repeat
	} if
	quit
} if

% We read at least three bytes, copy them for comparison
copy
16#BF 4 2 roll
16#BB 5 2 roll
16#EF 6 2 roll
true
3 { 3 1 roll eq and } repeat 

not {
	% Reverse the order
	exch 3 -1 roll
	3 { output exch write } repeat
} if

% Final output loop
{
	input read
	not { quit } if
	output exch write
} loop
